[
  { "id": 1, "username": "tharifH", "email": "tharifhasan@gmail.com" },
  { "id": 2, "username": "rosesss", "email": "rose@gmail.com" },
  { "id": 3, "username": "mosalah", "email": "selalusalah@gmail.com" }
]
